{
	"process_id" : 10360,
	"version" : "2018.3.8f1",
	"app_path" : "C:/Program Files/Unity/Hub/Editor/2018.3.8f1/Editor/Unity.exe",
	"app_contents_path" : "C:/Program Files/Unity/Hub/Editor/2018.3.8f1/Editor/Data"
}